[
  {
    "id": 292223,
    "name": "Dubai",
    "state": "",
    "country": "AE",
    "coord": {
      "lon": 55.304722,
      "lat": 25.258169
    }
  },
  {
    "id": 756135,
    "name": "Warsaw",
    "state": "",
    "country": "PL",
    "coord": {
      "lon": 21.01178,
      "lat": 52.229771
    }
  },
  {
    "id": 1850147,
    "name": "Tokyo",
    "state": "",
    "country": "JP",
    "coord": {
      "lon": 139.691711,
      "lat": 35.689499
    }
  }
]
